Business Forcasting on Global Economy, Canadian Gas Utilization & Aus Retail Time Series
…
Do an STL decomposition of the data. You will need to choose a
seasonal window to allow for the changing shape of the seasonal
component

# Fit a Seasonal and Trend decomposition using STL model to the "Volume" series in the "canadian_gas" dataset
fit <- canadian_gas %>%
 model(STL(Volume)) %>%
 components()

# Plotting the decomposed series
fit

## # A dable: 542 x 7 [1M]
## # Key:     .model [1]
## # :        Volume = trend + season_year + remainder
##    .model         Month Volume trend season_year remainder season_adjust
##    <chr>          <mth>  <dbl> <dbl>       <dbl>     <dbl>         <dbl>
##  1 STL(Volume) 1960 Jan  1.43   1.08      0.520   -0.172           0.911
##  2 STL(Volume) 1960 Feb  1.31   1.11      0.215   -0.0178          1.09 
##  3 STL(Volume) 1960 Mar  1.40   1.13      0.307   -0.0395          1.09 
##  4 STL(Volume) 1960 Apr  1.17   1.16      0.0161  -0.00627         1.15 
##  5 STL(Volume) 1960 May  1.12   1.18     -0.116    0.0476          1.23 
##  6 STL(Volume) 1960 Jun  1.01   1.21     -0.356    0.159           1.37 
##  7 STL(Volume) 1960 Jul  0.966  1.23     -0.403    0.136           1.37 
##  8 STL(Volume) 1960 Aug  0.977  1.26     -0.349    0.0677          1.33 
##  9 STL(Volume) 1960 Sep  1.03   1.28     -0.340    0.0870          1.37 
## 10 STL(Volume) 1960 Oct  1.25   1.31     -0.0899   0.0329          1.34 
## #  532 more rows
…
# remover NA's in the series with below:
myseries =  myseries %>% filter(!is.na(`Series ID`)) 
nrow(myseries)

## [1] 441

# rename the column name  `Series ID` with MyRandomSeries
rename(myseries, MyRandomSeries = `Series ID`)

## # A tsibble: 441 x 5 [1M]
## # Key:       State, Industry [1]
##    State    Industry                            MyRandomSeries    Month Turnover
##    <chr>    <chr>                               <chr>             <mth>    <dbl>
##  1 Victoria Cafes, restaurants and takeaway fo A3349417W      1982 Apr     85.1
##  2 Victoria Cafes, restaurants and takeaway fo A3349417W      1982 May     85.1
##  3 Victoria Cafes, restaurants and takeaway fo A3349417W      1982 Jun     82.8
##  4 Victoria Cafes, restaurants and takeaway fo A3349417W      1982 Jul     82.1
##  5 Victoria Cafes, restaurants and takeaway fo A3349417W      1982 Aug     81.8
##  6 Victoria Cafes, restaurants and takeaway fo A3349417W      1982 Sep     84.6
##  7 Victoria Cafes, restaurants and takeaway fo A3349417W      1982 Oct     91.7
##  8 Victoria Cafes, restaurants and takeaway fo A3349417W      1982 Nov     97.7
##  9 Victoria Cafes, restaurants and takeaway fo A3349417W      1982 Dec    109. 
## 10 Victoria Cafes, restaurants and takeaway fo A3349417W      1983 Jan     94.6
## #  431 more rows
…
Forecast for next 3 years. What are the values for the next 3 years
are they monthly values?

Yes, they are in monthly intervals of 36!

# since, data is monthly, we should take 12 months * 3 years = 36 months to forecast  
fit %>% forecast(h=36)

## # A fable: 36 x 6 [1M]
## # Key:     State, Industry, .model [1]
##    State    Industry                          .model    Month     Turnover .mean
##    <chr>    <chr>                             <chr>     <mth>       <dist> <dbl>
##  1 Victoria Cafes, restaurants and takeaway  TSLM( 2019 Jan N(826, 4155)  826.
##  2 Victoria Cafes, restaurants and takeaway  TSLM( 2019 Feb N(828, 4155)  828.
##  3 Victoria Cafes, restaurants and takeaway  TSLM( 2019 Mar N(830, 4155)  830.
##  4 Victoria Cafes, restaurants and takeaway  TSLM( 2019 Apr N(832, 4155)  832.
##  5 Victoria Cafes, restaurants and takeaway  TSLM( 2019 May N(833, 4156)  833.
##  6 Victoria Cafes, restaurants and takeaway  TSLM( 2019 Jun N(835, 4156)  835.
##  7 Victoria Cafes, restaurants and takeaway  TSLM( 2019 Jul N(837, 4156)  837.
##  8 Victoria Cafes, restaurants and takeaway  TSLM( 2019 Aug N(839, 4156)  839.
##  9 Victoria Cafes, restaurants and takeaway  TSLM( 2019 Sep N(841, 4157)  841.
## 10 Victoria Cafes, restaurants and takeaway  TSLM( 2019 Oct N(843, 4157)  843.
## #  26 more rows
…
